1605.3005, 558.0794
1601.4155, 557.6472
1598.3828, 556.15686
1598.7196, 552.2486
1602.5936, 551.8335
1603.0265, 555.5779
1607.2095, 552.61084
1606.2659, 555.38104
1607.7252, 559.8612
1605.9753, 562.70264
1603.57, 560.4209
1600.7913, 564.3021
1596.0818, 568.32214
1590.9734, 571.10876
1584.8531, 568.5252
1585.0593, 575.24976
1584.9666, 579.4093
1580.697, 574.474
1577.0593, 573.8956
1573.956, 572.0943
1570.7163, 573.74963
1571.478, 576.9352
1573.5824, 579.9059
1576.9424, 581.31726
1580.2798, 579.0767
1580.0706, 582.4821
1583.0154, 582.3646
1585.7556, 582.8806
1588.3441, 585.0755
1591.356, 583.06354
1588.7753, 581.9076
1588.9539, 576.9704
1593.8074, 576.895
1594.3416, 583.4215
1598.0902, 583.96814
1602.6702, 583.791
1607.3865, 583.9739
1609.2507, 580.8637
1611.3033, 584.2324
1613.6716, 581.9312
1616.0427, 585.20953
1617.9302, 581.216
1622.7501, 580.1942
1621.0289, 575.0921
1617.3315, 573.53296
1614.1561, 575.01807
1611.1777, 575.0798
1608.7524, 576.8138
1606.1326, 574.8126
1604.4714, 578.0938
1599.4203, 577.10785
1603.7307, 570.83356
1606.3313, 565.9257
1607.5859, 569.06116
1608.7694, 572.5226
1611.4509, 570.871
1614.8746, 570.32086
1618.4873, 569.6245
1622.2838, 571.09265
1621.7593, 567.7418
1621.442, 564.0282
1617.1859, 562.1227
1615.1141, 565.69324
1611.5084, 567.3867
1609.6018, 564.2992
1612.9128, 562.8351
1611.9447, 560.1964
1610.1233, 557.7092
1611.2622, 554.5618
1614.9045, 556.92114
1618.5542, 557.01807
1621.0239, 559.57
1623.8336, 557.4331
1625.4227, 560.80566
1630.2053, 560.89996
1630.2543, 565.0051
1625.9863, 564.97925
1626.8655, 568.1374
1626.0024, 571.0724
1626.7432, 576.0226
1630.7336, 571.9988
1633.9587, 568.85864
1635.6934, 564.914
1638.345, 561.8789
1634.495, 559.79175
1631.8799, 557.196
1628.0049, 556.90704
1624.6353, 553.7171
1619.6564, 550.8684
1619.9794, 544.74744
1624.5859, 540.85803
1629.0483, 546.3763
1635.5654, 548.3269
1641.5608, 545.47595
1640.5343, 553.6787
1635.2708, 555.46106
1638.5891, 557.53534
1641.6648, 557.87573
1644.5299, 554.70135
1646.3446, 551.65454
1648.7482, 550.08264
1649.794, 547.77734
1648.7974, 545.41296
1647.8015, 542.8296
1646.2504, 539.89636
1642.3359, 538.6521
1636.9688, 537.7041
1632.8029, 534.6218
1627.8871, 533.3687
1623.8905, 535.3999
1619.9211, 532.7325
1621.5662, 528.0335
1618.6725, 526.45154
1616.5834, 523.0719
1614.1456, 527.1571
1611.542, 524.6467
1608.9161, 527.2961
1607.7153, 521.55646
1603.8491, 517.57336
1609.9542, 516.77045
1613.9497, 513.1072
1613.5183, 508.35492
1615.4556, 505.81833
1617.0685, 502.36923
1615.7615, 498.86923
1614.8225, 494.59424
1615.7036, 489.5011
1609.174, 489.17035
1606.5424, 485.9218
1606.7902, 483.23547
1610.0035, 483.21066
1612.7747, 484.4118
1617.0105, 484.52045
1619.7991, 483.48358
1619.2959, 477.97607
1621.5688, 473.70578
1619.9928, 470.88437
1621.8667, 467.58005
1623.873, 466.1499
1621.5859, 462.5228
1623.7542, 459.6183
1623.794, 456.35577
1620.8888, 455.38672
1621.9587, 450.5035
1619.9736, 452.91998
1616.3872, 454.5656
1620.2938, 458.75195
1618.9747, 466.54013
1617.0709, 462.78436
1615.0518, 458.1338
1612.9725, 456.37537
1611.1117, 457.9188
1609.1284, 459.03723
1606.7424, 460.93896
1606.3951, 459.00555
1604.9409, 457.20114
1604.7349, 454.3687
1606.6053, 454.7561
1606.2532, 456.9449
1607.6742, 457.2304
1609.3589, 456.81604
1608.4379, 455.42682
1608.0149, 453.82285
1609.6436, 453.42554
1610.753, 455.15735
1612.8601, 453.66968
1613.3352, 451.41
1615.087, 450.03668
1617.7902, 450.88977
1616.8516, 447.70944
1620.1305, 446.377
1618.7207, 442.39893
1615.7676, 444.78864
1613.086, 442.77264
1612.7314, 445.52158
1613.9651, 447.75208
1611.9733, 448.1473
1610.863, 449.7981
1609.9697, 451.6209
1607.302, 451.79077
1604.844, 452.27658
1604.2916, 449.87317
1606.6721, 449.07565
1608.9834, 448.51096
1610.0935, 445.71616
1607.3425, 446.13947
1604.8983, 446.37067
1605.4532, 443.707
1604.0635, 441.34238
1601.9512, 442.6468
1603.0916, 444.27612
1602.3583, 446.61325
1601.8684, 449.28082
1600.676, 451.97482
1601.9639, 453.39154
1602.7413, 454.96677
1603.5581, 456.57272
1600.8074, 456.59116
1598.9229, 455.1898
1596.2518, 456.23056
1594.1206, 457.06174
1595.0295, 459.7434
1597.6193, 458.09344
1597.6024, 460.1451
1596.0781, 462.425
1598.577, 462.5957
1597.4504, 464.83905
1598.8081, 467.3189
1598.2878, 469.80518
1595.325, 471.14496
1597.5111, 472.44513
1600.105, 472.10556
1604.0513, 470.28375
1601.323, 469.4482
1600.4783, 464.4804
1602.5984, 467.0407
1606.5004, 468.6036
1607.1642, 471.93896
1610.3551, 470.9858
1609.7202, 469.02515
1610.7731, 466.6972
1608.1157, 466.25964
1605.3977, 465.7519
1603.2228, 464.16476
1601.7206, 461.8495
1599.522, 460.84222
1600.3088, 459.0417
1602.5697, 458.50897
1603.8368, 460.48224
1605.2527, 462.65033
1607.0217, 463.67856
1608.7524, 463.57654
1610.9954, 464.2859
1610.844, 462.11996
1609.4348, 460.87827
1612.549, 460.02814
1613.5376, 462.86877
1613.7734, 466.1086
1613.0317, 469.03937
1614.4998, 471.2444
1613.4741, 474.26633
1610.5935, 472.79138
1610.6609, 475.20944
1612.2087, 478.31577
1609.0319, 478.93588
1608.1866, 481.24866
1605.663, 479.98532
1605.089, 476.48633
1608.107, 475.79327
1605.0181, 473.7629
1602.604, 473.09213
1601.4468, 475.12653
1598.898, 475.34796
1600.8412, 477.69385
1598.0522, 478.24985
1596.3477, 479.87427
1594.3595, 480.52658
1598.2401, 481.77795
1601.1449, 482.8404
1600.7277, 480.30438
1603.3451, 478.77634
1603.8434, 482.99243
1601.3613, 485.78418
1603.3652, 487.12115
1605.0067, 489.9819
1607.5723, 502.18878
1609.7084, 505.4604
1610.3947, 509.3353
1607.1694, 509.30072
1605.2905, 505.7979
1600.373, 505.1694
1603.3181, 501.64557
1599.5251, 498.2048
1595.6409, 494.32336
1599.2039, 490.54037
1598.6267, 487.4906
1598.8547, 484.66052
1596.1857, 484.93658
1595.2869, 482.71625
1592.385, 483.58188
1592.3545, 481.1515
1589.8654, 481.72324
1590.2964, 486.19275
1595.0171, 488.15662
1590.2568, 491.9649
1589.1248, 500.35287
1594.9681, 501.94885
1596.7893, 508.73834
1601.9377, 511.7603
1597.4491, 515.3775
1592.4377, 515.9353
1591.761, 519.04675
1587.4248, 519.72186
1590.3075, 525.80994
1594.1355, 530.06793
1597.8538, 522.4576
1603.4114, 525.45764
1602.283, 532.378
1597.3998, 533.9245
1606.5625, 535.50745
1613.1934, 536.5025
1614.4578, 544.78986
1610.6089, 549.35455
1607.2686, 544.0571
1601.4519, 540.20514
1595.5586, 540.5228
1594.983, 543.937
1599.7268, 545.4396
1595.208, 549.8054
1594.6755, 553.652
1591.0596, 552.5735
1591.343, 561.4844
1582.9452, 562.1333
1578.0159, 566.5453
1572.9729, 566.4708
1575.0242, 559.948
1579.4385, 554.93414
1584.8359, 556.52386
1586.4319, 553.2788
1586.7688, 549.35645
1590.2203, 545.8873
1591.1147, 541.7012
1589.5631, 538.0759
1585.4523, 535.63416
1583.3829, 529.91077
1582.1179, 523.28546
1583.0563, 517.20874
1583.1987, 512.7898
1586.6245, 510.92978
1588.4447, 514.73065
1592.2218, 509.76392
1588.4846, 506.59467
1585.4556, 504.4054
1585.1854, 507.32343
1583.2485, 509.4692
1580.6711, 507.60593
1582.7507, 506.2716
1581.4761, 503.90195
1584.4885, 501.78308
1581.4026, 500.69116
1581.3672, 497.4375
1584.5397, 496.10544
1583.0363, 492.52216
1583.3142, 488.16782
1585.0846, 484.09445
1587.2197, 482.69464
1587.8087, 480.3755
1584.9429, 480.3409
1582.0891, 480.3156
1581.5062, 483.65125
1578.9238, 485.9281
1577.5076, 490.5232
1577.6957, 495.02307
1576.9255, 499.99548
1577.685, 503.10162
1579.2305, 505.69653
1576.4745, 506.53497
1575.5247, 509.06882
1574.754, 512.662
1569.7301, 513.73444
1567.0676, 515.7303
1563.782, 517.2405
1563.8839, 520.8689
1564.9271, 527.8552
1561.3914, 529.60706
1558.5646, 534.9698
1554.7703, 537.65
1554.7334, 532.89307
1559.537, 531.76514
1562.0144, 526.0974
1560.6589, 524.13293
1557.4913, 520.5747
1553.2074, 516.25745
1547.9233, 521.2542
1546.2522, 515.8714
1543.0509, 518.8392
1540.4003, 517.2695
1539.2617, 519.8545
1538.8767, 522.96893
1542.1183, 522.2666
1541.8132, 526.1844
1552.7723, 525.4213
1547.3254, 528.57605
1543.8405, 533.0673
1547.9258, 537.0205
1552.6731, 540.5006
1552.8851, 544.6033
1554.8341, 548.29065
1551.6515, 551.0901
1549.1876, 544.98627
1544.209, 546.3716
1540.3365, 541.5698
1540.5426, 536.7813
1537.0732, 532.3396
1533.3264, 532.9808
1534.81, 535.5196
1535.272, 537.5676
1536.9662, 539.19653
1534.7537, 539.90625
1535.7567, 542.4696
1533.826, 544.3731
1530.5305, 545.0411
1531.6011, 549.04
1534.5303, 547.7446
1537.432, 545.8458
1537.3397, 549.87646
1540.2021, 552.55945
1549.26, 554.4678
1550.3573, 558.55865
1549.2373, 563.01294
1548.1162, 567.1936
1547.1729, 573.2296
1545.7422, 570.0102
1544.6204, 567.47894
1542.5168, 566.5946
1541.5342, 564.8317
1541.3754, 562.6092
1544.5299, 562.0772
1541.3748, 559.3559
1539.4655, 556.6609
1536.3777, 555.41956
1534.7029, 551.80426
1532.6726, 554.58386
1530.2755, 556.723
1528.0323, 555.60785
1527.5596, 553.0115
1529.8684, 552.86163
1527.7761, 549.56604
1524.8036, 550.9796
1525.2429, 553.6937
1521.9136, 553.5234
1524.5123, 555.96783
1526.3225, 558.2001
1528.468, 558.95386
1530.7966, 559.5171
1533.8964, 558.5616
1537.2665, 560.1461
1538.9026, 563.2551
1539.5453, 566.64197
1541.157, 569.06793
1542.9607, 571.895
1539.662, 574.0064
1539.9894, 571.7796
1538.4358, 569.7743
1536.6217, 571.91174
1534.992, 575.3265
1531.0612, 571.8673
1534.5339, 570.9748
1535.6802, 568.8123
1535.9896, 566.7325
1535.4392, 564.05725
1532.9165, 564.6272
1532.5188, 561.6354
1529.9662, 563.3079
1527.2206, 561.40704
1526.4736, 564.446
1529.1602, 566.0023
1532.925, 568.1909
1530.0212, 568.26746
1526.855, 569.71814
1523.9045, 565.5249
1520.7987, 561.67444
1523.766, 561.3862
1523.4546, 558.2664
1520.3003, 557.8678
1518.4961, 555.3663
1515.5059, 553.9231
1516.1593, 551.09204
1519.0681, 551.0667
1521.6997, 549.15063
1522.1575, 546.6396
1522.3387, 544.729
1525.3325, 547.8208
1525.4714, 545.3862
1523.6108, 543.19446
1524.0377, 540.0895
1521.8738, 538.7078
1521.3689, 535.94934
1522.9607, 534.45135
1520.6475, 531.86145
1518.5094, 532.28735
1516.1191, 531.49115
1518.2782, 534.2747
1519.3519, 537.12854
1517.2605, 538.7586
1514.9045, 537.432
1516.5938, 535.7688
1515.134, 533.3788
1512.8384, 532.6881
1509.5295, 532.133
1510.7018, 534.4358
1513.1399, 535.3768
1512.2395, 537.8544
1512.9817, 540.10474
1515.4395, 540.7821
1517.6499, 541.67505
1519.4375, 541.0088
1521.6769, 541.3981
1520.3892, 543.4745
1519.2615, 546.1496
1516.9155, 548.1827
1517.0424, 545.2701
1516.2721, 543.29285
1514.5161, 544.66675
1513.9811, 542.7084
1512.0828, 542.15015
1511.2637, 544.4219
1512.6252, 545.8467
1514.3484, 547.1598
1514.1946, 549.9349
1511.7319, 548.42737
1508.7974, 545.50085
1509.7703, 542.0974
1507.2068, 541.48804
1505.4819, 538.46606
1509.5212, 538.678
1507.7825, 535.739
1506.3971, 532.49005
1503.8213, 534.6323
1503.5433, 531.7765
1500.1001, 530.2539
1502.31, 529.42554
1507.7478, 530.18274
1505.1008, 528.43024
1504.7546, 525.40814
1502.2528, 525.0692
1499.8794, 526.1531
1498.5083, 522.803
1501.2145, 520.47974
1496.34, 519.2732
1496.8074, 515.2217
1500.1575, 513.69604
1499.7922, 517.4542
1506.0026, 518.6724
1505.6981, 515.39136
1502.7162, 516.0108
1503.5486, 512.81384
1501.5474, 511.42792
1501.4211, 509.545
1503.999, 510.11984
1503.1366, 507.91205
1500.9908, 506.08447
1499.3425, 508.23126
1499.1615, 510.79416
1497.0184, 512.1422
1493.6956, 512.6625
1496.6847, 509.53955
1494.9978, 507.5102
1492.8472, 503.51544
1496.1301, 501.86963
1495.5298, 498.06052
1498.5365, 495.94238
1502.5015, 493.99072
1503.998, 496.17062
1508.7144, 493.50623
1512.1731, 498.59216
1515.7709, 502.32446
1517.3318, 506.2398
1521.1317, 508.85272
1517.9801, 510.8564
1512.4204, 511.77222
1509.7128, 511.75314
1509.4486, 509.3801
1511.7812, 507.61435
1508.1616, 506.1751
1507.2319, 502.86743
1503.5997, 500.54895
1498.6688, 499.09872
1500.1123, 501.85324
1497.7009, 505.14548
1503.7637, 504.54803
1506.1431, 508.47485
1506.1235, 511.67624
1507.6082, 513.144
1509.415, 514.5082
1509.3977, 516.7405
1512.4153, 515.9468
1514.5104, 514.3509
1515.0117, 518.58344
1510.6488, 519.083
1510.5994, 522.3305
1506.9191, 522.35645
1503.8734, 521.7713
1507.6046, 525.52277
1509.7454, 526.297
1510.0295, 528.84894
1512.3573, 528.11914
1511.4663, 530.8083
1513.6779, 530.43304
1515.4028, 528.8417
1517.8695, 529.8678
1519.0713, 527.8422
1516.1981, 526.0169
1513.0408, 525.77155
1514.5963, 522.365
1518.3662, 523.13983
1522.8452, 521.3893
1521.3767, 515.3493
1528.0258, 519.531
1530.21, 520.8069
1529.5901, 523.20856
1526.9448, 524.5122
1529.8822, 526.3726
1527.0063, 530.0182
1526.7219, 527.585
1523.5144, 526.8764
1524.5339, 530.5786
1526.9957, 532.88684
1527.6404, 536.7126
1525.9409, 542.4381
1529.175, 540.8297
1532.1042, 540.8508
1531.8569, 537.33624
1530.1136, 534.06055
1530.1472, 530.8017
1532.5532, 529.3562
1532.8818, 525.8029
1534.7695, 528.6224
1538.3821, 527.68164
1534.3643, 524.0772
1533.1191, 522.1992
1532.0825, 520.8458
1536.0105, 521.25476
1533.7727, 519.4272
1531.5203, 518.2073
1532.995, 516.3426
1536.478, 517.0489
1539.1195, 515.44385
1543.4674, 512.555
1540.2668, 511.96957
1537.1389, 512.2652
1537.0262, 507.91696
1532.1461, 508.48166
1533.2345, 511.38754
1531.5929, 514.3036
1529.3103, 515.9336
1529.3633, 511.63058
1528.2786, 507.15106
1528.7135, 501.98187
1523.6031, 499.0261
1524.0173, 493.5671
1516.9583, 491.21838
1524.9069, 457.9433
1528.9263, 453.11594
1524.77, 450.13696
1523.9502, 453.73166
1520.8419, 451.65698
1519.1766, 448.00546
1521.6653, 446.5455
1517.3884, 443.6229
1516.4907, 438.6943
1514.5304, 433.15155
1520.6548, 431.61667
1516.6143, 426.94946
1519.5769, 422.75586
1521.9374, 418.34082
1525.8494, 417.64258
1526.6523, 422.81885
1530.3865, 420.40048
1533.7826, 422.2387
1533.3344, 425.8255
1529.4055, 430.104
1526.9434, 436.62146
1525.313, 442.7878
1531.6677, 444.32507
1537.9752, 445.54944
1534.2474, 454.4454
1529.7424, 457.78784
1533.8662, 458.7059
1537.7009, 456.83066
1540.9747, 455.39435
1544.9858, 454.7353
1543.3701, 450.03696
1541.7097, 438.44122
1535.207, 436.7075
1537.6648, 430.53635
1539.0643, 423.4747
1536.667, 419.08862
1543.9653, 417.43848
1547.1105, 408.09894
1546.8501, 398.70355
1552.0168, 396.312
1553.9114, 400.39874
1556.1548, 406.82355
1556.4313, 416.2501
1551.1216, 422.47675
1545.5908, 430.77304
1553.545, 430.31442
1557.8525, 437.68405
1547.7616, 441.77234
1549.8054, 450.55975
1553.5654, 452.7204
1556.3007, 447.0727
1562.3254, 443.50232
1567.8022, 440.4223
1569.8965, 435.85272
1573.525, 438.80734
1575.9536, 435.28723
1578.8677, 435.1898
1580.9585, 432.72714
1584.8986, 433.009
1586.4438, 430.40106
1587.6008, 428.25656
1588.8376, 424.69357
1592.3212, 421.03256
1593.7131, 425.98694
1591.714, 427.76874
1590.1819, 429.63733
1591.624, 432.779
1593.905, 430.44577
1595.638, 427.9459
1599.9607, 429.07468
1601.4863, 425.9264
1597.3522, 424.12537
1598.7284, 420.11176
1603.2303, 421.52524
1606.7441, 419.98593
1609.7821, 418.66733
1610.761, 421.415
1611.8057, 423.52112
1609.6892, 424.31915
1607.2317, 423.53247
1604.5614, 424.70844
1604.7463, 427.77023
1603.0952, 429.70264
1601.3762, 431.93503
1598.5737, 433.23145
1597.3752, 430.2564
1595.2784, 433.22214
1592.367, 435.41452
1595.0647, 436.9094
1597.972, 435.79
1600.8495, 436.0538
1603.0403, 434.10107
1606.3422, 433.1377
1605.7107, 431.04257
1607.4304, 428.00995
1609.5973, 427.1261
1612.1602, 426.7412
1612.6511, 425.15463
1613.9397, 422.50183
1615.6243, 424.1126
1618.2908, 424.64575
1619.4984, 420.3393
1615.7744, 418.99323
1613.1412, 417.6643
1609.6509, 412.90717
1616.6653, 412.8834
1617.4761, 403.01233
1612.4454, 400.4078
1609.8945, 406.8348
1601.5364, 413.05844
1592.6318, 410.83722
1593.5948, 401.4312
1603.4016, 400.8962
1611.5947, 390.04733
1610.259, 377.53662
1600.3536, 385.10934
1599.8835, 393.22162
1591.3696, 390.66748
1585.5361, 385.2651
1578.4623, 389.72607
1584.6251, 395.00958
1583.5474, 402.7658
1578.6276, 409.4214
1582.3684, 418.3241
1583.8025, 425.6119
1583.1959, 429.90454
1577.4606, 427.84888
1573.1395, 431.99554
1562.2456, 428.08432
1568.9407, 424.31146
1570.6082, 417.58542
1566.4812, 410.22018
1563.5968, 400.87546
1565.8473, 394.23898
1573.2323, 396.5045
1574.2808, 390.27997
1571.7328, 384.9839
1568.6682, 383.44476
1571.459, 381.94724
1575.2952, 384.79767
1578.4718, 384.32965
1579.4169, 379.45264
1575.7839, 379.9408
1573.5166, 376.62558
1570.0819, 373.4251
1565.178, 374.1018
1559.398, 374.55307
1559.3633, 378.8515
1556.5714, 381.88376
1558.0114, 384.22458
1555.9153, 386.34335
1560.758, 388.11752
1558.6381, 392.1372
1553.0763, 392.0306
1549.2595, 389.49908
1549.1111, 393.5554
1545.779, 392.28403
1546.2607, 387.7815
1543.3005, 386.31097
1540.342, 387.8945
1541.7708, 391.8792
1540.15, 400.48853
1534.0034, 404.85876
1537.8627, 410.1349
1529.2778, 409.45142
1522.2811, 412.791
1522.9247, 407.36774
1520.3345, 404.5313
1520.0294, 400.57715
1526.8135, 401.42892
1525.4702, 395.02924
1528.6443, 391.2922
1533.4324, 390.90244
1537.364, 389.80164
1539.2401, 383.1875
1538.733, 378.6545
1537.8501, 374.46185
1538.5505, 369.24323
1544.3239, 375.8956
1545.4498, 381.07956
1548.8569, 375.12704
1553.5613, 373.94836
1556.3729, 365.24042
1564.8608, 366.98492
1558.2385, 355.31158
1561.4906, 348.12778
1561.0508, 343.95074
1555.7369, 347.13654
1553.7588, 352.19946
1551.2556, 353.7434
1548.7914, 355.88583
1551.6985, 359.31064
1547.0919, 361.21603
1545.6104, 366.49728
1540.5647, 362.1301
1540.6115, 357.07703
1543.5913, 354.10162
1544.5231, 350.0161
1546.511, 346.2431
1549.7451, 348.57883
1550.0449, 343.55573
1551.5298, 340.1021
1555.3651, 339.4958
1555.3987, 335.47986
1559.4556, 336.83752
1563.0685, 334.50275
1565.4182, 332.77216
1560.2881, 331.65292
1560.4106, 327.85437
1555.6589, 326.9078
1553.6975, 323.69678
1550.6317, 323.04813
1554.6199, 320.7535
1558.6337, 320.69397
1555.6213, 317.9191
1552.7261, 318.9244
1550.367, 318.47107
1547.7432, 315.82422
1552.2341, 314.40134
1556.1804, 301.7249
1548.931, 303.13214
1547.5531, 296.82526
1542.7643, 304.08875
1546.4323, 312.05298
1542.5747, 314.26562
1539.7288, 311.83997
1536.0042, 310.48645
1533.4315, 308.55243
1539.4034, 305.23206
1539.3181, 301.1446
1536.6396, 302.29327
1535.6146, 298.788
1533.0284, 300.45538
1533.9475, 303.05472
1529.8574, 303.05066
1530.9258, 307.76892
1528.2511, 305.62308
1522.4799, 296.1759
1526.0176, 294.36002
1528.1715, 296.09607
1530.8158, 298.14713
1532.8755, 294.6878
1541.5273, 293.74994
1548.5557, 286.5974
1546.3839, 280.00778
1538.7216, 275.8065
1543.9766, 271.5534
1538.7693, 266.67032
1534.2109, 261.95526
1531.3152, 255.96594
1528.8237, 266.56787
1528.8542, 274.622
1524.9728, 280.03134
1521.5782, 280.39642
1520.675, 283.38245
1524.6145, 283.70377
1528.9253, 283.49112
1528.96, 288.26404
1524.1328, 292.6379
1521.7242, 292.21368
1521.4882, 289.40338
1519.0511, 291.86505
1518.0906, 289.42706
1514.6959, 291.22824
1513.9832, 286.69543
1515.8464, 288.1874
1518.6868, 287.14816
1516.6886, 284.9693
1514.1243, 283.9834
1512.7964, 281.24457
1517.4929, 280.80734
1520.4192, 276.9553
1516.9423, 276.11093
1515.2583, 272.85306
1511.6682, 274.17908
1512.2285, 269.6986
1508.3893, 269.17398
1506.0094, 265.73047
1502.346, 263.73538
1497.6294, 263.11685
1499.5002, 260.195
1497.582, 257.2661
1494.8053, 253.94548
1492.7727, 256.8732
1489.3079, 252.40945
1490.9702, 249.47513
1485.5237, 244.48627
1481.7197, 236.80254
1479.1659, 228.3043
1478.7739, 222.4678
1484.1152, 222.48633
1490.1709, 220.5841
1490.8486, 225.42212
1496.6289, 224.10326
1499.9783, 229.48026
1502.6776, 225.64017
1506.6295, 228.74799
1510.6716, 229.30516
1514.3002, 231.92911
1520.7488, 234.55746
1524.7947, 239.40948
1520.7947, 240.01782
1515.7153, 236.08194
1504.28, 237.54407
1493.0559, 235.72795
1497.346, 245.0289
1503.6951, 247.07361
1514.3672, 245.55493
1510.7213, 251.5225
1505.6426, 254.96515
1503.6659, 259.70825
1518.7922, 258.52463
1526.0441, 243.79068
1528.9463, 239.36496
1530.094, 245.45947
1533.3016, 248.43915
1536.9475, 251.98251
1539.8059, 255.85661
1542.51, 259.63782
1544.7712, 263.81323
1548.3328, 265.09674
1548.5061, 268.357
1549.5992, 272.22836
1553.3508, 270.63123
1552.0829, 265.1327
1556.7622, 264.37213
1559.2197, 270.69327
1557.1276, 275.68936
1560.2659, 277.77344
1558.7188, 282.239
1561.2957, 285.8485
1562.1135, 291.04846
1557.2617, 289.4657
1551.6969, 293.89484
1562.2549, 295.15417
1562.4974, 299.45703
1564.0612, 304.96857
1565.2468, 310.37427
1563.3057, 314.48553
1566.904, 315.2649
1570.0197, 316.7734
1564.7705, 319.4585
1568.6603, 320.84753
1571.6284, 324.51556
1567.9382, 325.8651
1570.27, 332.9709
1574.371, 330.08618
1580.4742, 330.3247
1587.3687, 329.4026
1596.6024, 330.5376
1592.4438, 331.3589
1586.8685, 336.89905
1594.8728, 341.11118
1589.8893, 348.15753
1600.2074, 347.41733
1607.5187, 348.63168
1606.1681, 357.99484
1598.0483, 354.81128
1596.8956, 362.4309
1590.0374, 366.46176
1582.0042, 364.99377
1586.9132, 357.33466
1580.2755, 352.3092
1581.453, 342.28833
1573.1755, 340.06226
1568.5782, 339.63452
1564.8129, 339.49234
1566.063, 344.68658
1571.5093, 347.57834
1566.9719, 355.66998
1573.9202, 360.38742
1574.5955, 371.46936
1581.4904, 374.32224
1589.4895, 377.81537
1598.3226, 377.8119
1597.1564, 371.05182
1604.6256, 369.12265
1611.5603, 364.12585
1617.7473, 368.5813
1623.9337, 362.46466
1622.3787, 355.60458
1619.9053, 348.85556
1616.7894, 346.4187
1612.4568, 341.50317
1606.0033, 337.02945
1600.2194, 336.86768
1601.7229, 332.25336
1608.0804, 333.65894
1610.7893, 338.09198
1616.1749, 342.432
1622.0316, 344.213
1622.4624, 351.64392
1624.6086, 358.73218
1629.8474, 362.71063
1625.8628, 367.76352
1624.4086, 373.85522
1630.615, 380.38452
1624.7812, 380.77826
1618.4854, 383.3908
1624.8047, 389.172
1622.8298, 393.4663
1618.1248, 396.38962
1623.2177, 401.3139
1627.3865, 398.70892
1630.4415, 389.6749
1635.364, 383.46652
1637.4756, 388.4271
1641.742, 386.90048
1640.1714, 390.9533
1639.0585, 394.57397
1638.1587, 400.4145
1636.2872, 406.17502
1631.8452, 410.02365
1625.632, 409.40228
1622.0002, 412.7746
1625.6501, 415.1836
1630.446, 419.12827
1625.7787, 421.24753
1623.7003, 424.9653
1620.7927, 425.6128
1616.5063, 426.9178
1613.9359, 427.6184
1615.0118, 430.09055
1612.4138, 430.59235
1611.3479, 428.64685
1609.8252, 431.2616
1608.5398, 433.81897
1610.5582, 434.82922
1611.2605, 437.79797
1612.603, 436.31714
1613.0837, 434.10175
1614.3563, 432.38464
1617.3816, 433.19028
1616.2472, 434.9034
1615.1942, 436.91772
1618.4956, 438.04785
1615.7413, 440.36646
1613.2114, 439.21066
1610.3745, 439.9978
1610.5063, 442.1847
1608.3892, 443.27942
1606.3379, 441.99902
1607.1069, 440.5227
1607.551, 438.86996
1609.4877, 437.53125
1607.6528, 436.60193
1605.3572, 435.86823
1604.9186, 438.82397
1602.9261, 437.55164
1602.3213, 440.06833
1600.3173, 438.8938
1597.7671, 438.5282
1597.1068, 441.48776
1599.9629, 441.14075
1599.2351, 443.23505
1600.219, 445.2362
1597.3566, 445.27734
1595.3167, 443.99384
1594.8431, 447.16278
1596.4663, 448.72693
1599.2642, 447.5924
1598.6267, 449.87753
1598.0815, 452.08374
1596.3966, 453.619
1593.7234, 453.3354
1594.8329, 450.6367
1591.9386, 450.0073
1592.1516, 446.90936
1592.6895, 444.37863
1593.2706, 442.06158
1594.6383, 439.99677
1592.0415, 438.83676
1589.1688, 438.08725
1589.9501, 441.9297
1587.0985, 444.17697
1589.7769, 445.3573
1588.7996, 448.3333
1588.072, 451.65866
1585.8286, 451.0073
1583.2754, 453.18567
1580.7249, 456.26678
1585.3461, 456.02454
1584.8048, 459.25604
1585.5646, 462.69897
1587.8439, 461.52194
1588.576, 458.8366
1588.6938, 456.6109
1587.5919, 454.1965
1590.3792, 451.9939
1590.1498, 454.40256
1592.0374, 455.12732
1591.5518, 457.5257
1592.2755, 459.82928
1590.1104, 460.97372
1591.374, 462.79163
1593.7777, 462.15857
1593.4845, 464.3609
1593.302, 466.6471
1595.8699, 466.99847
1594.5193, 469.05872
1592.8665, 470.48688
1590.8984, 469.41098
1590.5643, 466.3684
1588.8999, 464.2337
1583.8616, 464.37817
1581.5107, 462.47177
1578.9045, 465.19894
1578.2029, 467.83176
1579.5112, 469.52594
1580.6398, 471.00574
1582.2382, 472.3446
1584.3062, 472.13287
1581.1738, 468.09528
1582.346, 466.1375
1584.197, 468.76282
1586.6772, 466.4052
1588.2249, 469.0205
1586.459, 471.04623
1588.8152, 472.28125
1586.0361, 473.97845
1588.2996, 475.528
1590.4459, 474.13885
1592.0881, 475.49298
1591.7885, 472.16013
1593.3239, 473.70203
1595.1165, 473.43527
1596.4465, 474.91754
1595.8828, 476.92712
1593.573, 476.56897
1593.8931, 478.57678
1591.3706, 478.16724
1589.4922, 478.50266
1587.1912, 478.21884
1585.0974, 477.2669
1583.4556, 475.2915
1581.3024, 476.84335
1578.9286, 478.01318
1576.6536, 476.98813
1575.8386, 475.0227
1579.2251, 474.11957
1577.2257, 472.138
1577.2202, 470.078
1574.7899, 472.79053
1573.3738, 475.5909
1571.0519, 477.36652
1571.929, 479.93832
1574.1061, 478.47656
1574.0557, 481.28717
1576.0985, 480.15915
1578.6217, 480.84705
1574.6267, 483.68036
1571.2518, 486.92224
1571.1947, 482.6717
1567.2085, 480.3054
1567.5192, 485.84167
1563.2468, 487.0621
1565.2877, 491.59433
1562.4226, 494.76636
1566.1453, 496.7697
1571.8993, 496.88458
1567.5353, 502.1759
1571.7269, 505.98517
1571.0818, 510.6714
1564.6667, 507.43185
1560.7307, 512.8198
1556.9751, 509.05405
1550.2731, 510.17188
1543.6667, 508.18036
1546.1385, 503.89307
1550.5106, 502.9271
1556.0364, 503.96033
1554.1609, 499.8801
1558.4792, 498.44287
1561.8453, 499.74603
